<?xml version="1.0" encoding="utf-8"?>
<!-- Generator: Adobe Illustrator 18.1.1, SVG Export Plug-In . SVG Version: 6.00 Build 0)  -->
<svg version="1.1" id="Layer_1" xmlns="http://www.w3.org/2000/svg" xmlns:xlink="http://www.w3.org/1999/xlink" x="0px" y="0px"
	 viewBox="0 0 200 200" enable-background="new 0 0 200 200" xml:space="preserve">
<path fill="#3BB0C9" d="M188.7,180.3c0,0,4.7-27.3-26.7-34.9s-42.6-14.7-42.6-14.7s-9.5-7.8-0.5-23.7c8.7-15.4,13-18.8,13-51.2
	c0-14.7-14.5-30.5-33.7-30.5l0,0c-19.2,0-33.5,16.7-34.4,31.4c-1.3,21.3,4.3,36.7,13.4,50.9c10,15.3-0.9,23.3-0.9,23.3
	s-11.2,7.1-42.6,14.7S7.2,180.3,7.2,180.3"/>
</svg>
