<?xml version="1.0" encoding="utf-8"?>
<!-- Generator: Adobe Illustrator 18.1.1, SVG Export Plug-In . SVG Version: 6.00 Build 0)  -->
<svg version="1.1" id="Layer_1" xmlns="http://www.w3.org/2000/svg" xmlns:xlink="http://www.w3.org/1999/xlink" x="0px" y="0px"
	 viewBox="0 0 180 180" style="enable-background:new 0 0 180 180;" xml:space="preserve">
<style type="text/css">
	.st0{fill:#37B2C9;}
	.st1{fill:none;stroke:#37B2C9;stroke-width:1.4173;stroke-miterlimit:10;}
</style>
<g>
	<g>
		<path class="st0" d="M54.5,94.6v-5.8l5.5-0.5c0.3-1.2,0.8-2.2,1.4-3.2l-3.6-4.4l4-4l4.4,3.6c1-0.6,2.1-1.1,3.2-1.4l0.5-5.5h5.8
			l0.6,5.5c1.2,0.3,2.2,0.8,3.2,1.4l4.4-3.6l4,4l-3.6,4.4c0.6,1,1.1,2.1,1.4,3.2l5.5,0.5v5.8l-5.5,0.6c-0.3,1.2-0.8,2.2-1.4,3.2
			l3.6,4.3l-4,4.2l-4.4-3.6c-1,0.6-2.1,1.1-3.2,1.4l-0.6,5.5H70l-0.5-5.5c-1.2-0.3-2.2-0.8-3.2-1.4l-4.4,3.6l-4-4.2l3.6-4.3
			c-0.6-1-1.1-2.1-1.4-3.2L54.5,94.6z M67.6,91.7c0,1.5,0.5,2.7,1.6,3.8s2.3,1.6,3.8,1.6c1.5,0,2.7-0.5,3.8-1.6c1-1,1.6-2.3,1.6-3.8
			S77.7,89,76.6,88c-1-1-2.3-1.6-3.8-1.6c-1.5,0-2.7,0.5-3.8,1.6S67.6,90.2,67.6,91.7z"/>
		<g>
			<path class="st0" d="M117,71.4l0.1-4.2l-4.1-0.4c-0.2-0.9-0.5-1.7-0.9-2.5l2.6-3.1l-3-3l-3.1,2.6c-0.7-0.5-1.5-0.8-2.4-1l-0.3-4
				l-4.3-0.1l-0.4,4c-0.8,0.2-1.6,0.6-2.3,1l-3.1-2.6l-3,3l2.5,3.1c-0.4,0.7-0.7,1.5-0.9,2.4l-4.1,0.3l-0.1,4.3l4.1,0.4
				c0.2,0.8,0.5,1.6,0.9,2.3l-2.6,3.1l3,3l3.2-2.5c0.7,0.4,1.5,0.7,2.3,0.9l0.4,4.1l4.2-0.1l0.4-4c0.8-0.2,1.6-0.5,2.5-0.9l3,2.6
				l3.1-3l-2.6-3.2c0.5-0.7,0.8-1.5,1.1-2.3L117,71.4z M107.5,69.2c0,1.1-0.4,2-1.1,2.8c-0.7,0.8-1.6,1.1-2.7,1.1
				c-1.1,0-2-0.4-2.8-1.2s-1.1-1.7-1.1-2.8c0-1,0.3-1.9,1-2.6s1.5-1.1,2.5-1.2l0.5,0c1.1,0.1,2,0.4,2.7,1.2
				C107.1,67.2,107.5,68.1,107.5,69.2z"/>
		</g>
		<path class="st0" d="M113.1,113.2l0.1-3l-2.8-0.4c-0.2-0.6-0.5-1.2-0.7-1.7l1.9-2.3l-2.1-2.2l-2.3,1.8c-0.5-0.3-1.1-0.6-1.7-0.8
			l-0.3-2.9l-2.9-0.1l-0.3,2.9c-0.6,0.1-1.2,0.4-1.7,0.7l-2.3-2l-2,2.2l1.7,2.4c-0.3,0.5-0.5,1.1-0.6,1.7l-2.9,0.3l-0.1,3l2.9,0.4
			c0.1,0.6,0.3,1.2,0.6,1.7l-1.9,2.3l2.1,2.2l2.3-1.8c0.6,0.3,1.1,0.5,1.7,0.6l0.3,3l2.9,0.1l0.3-2.9c0.6-0.1,1.2-0.4,1.7-0.7l2.3,2
			l2.1-2.2l-1.9-2.4c0.3-0.5,0.6-1.1,0.6-1.7L113.1,113.2z M106.5,111.5c0,0.8-0.3,1.5-0.8,2.1c-0.6,0.6-1.2,0.8-2,0.8
			c-0.7,0-1.4-0.3-1.9-0.9c-0.6-0.5-0.8-1.2-0.7-2.1l0,0c-0.1-0.7,0.1-1.3,0.6-1.9c0.5-0.5,1.1-0.9,1.8-0.9l0.3,0
			c0.7,0.1,1.3,0.4,1.9,0.9C106.2,110.1,106.5,110.7,106.5,111.5z"/>
	</g>
	<circle class="st1" cx="103.7" cy="51.1" r="1.6"/>
	<circle class="st1" cx="116.3" cy="56.4" r="1.6"/>
	<circle class="st1" cx="104" cy="125.9" r="1.6"/>
	<circle class="st1" cx="103.7" cy="87.6" r="1.6"/>
	<circle class="st1" cx="103.7" cy="96" r="1.6"/>
	<circle class="st1" cx="113.2" cy="101.7" r="1.6"/>
	<circle class="st1" cx="122.1" cy="69.2" r="1.6"/>
	<circle class="st1" cx="49.5" cy="91.8" r="1.6"/>
	<circle class="st1" cx="23.6" cy="91.8" r="1.6"/>
	<circle class="st1" cx="56.6" cy="74.9" r="1.6"/>
	<circle class="st1" cx="56.3" cy="108.1" r="1.6"/>
	<circle class="st1" cx="90.8" cy="56.4" r="1.6"/>
	<circle class="st1" cx="73" cy="69.1" r="1.6"/>
	<circle class="st1" cx="73" cy="114.9" r="1.6"/>
	<circle class="st1" cx="94.2" cy="121.4" r="1.6"/>
	<circle class="st1" cx="114.2" cy="121.4" r="1.6"/>
	<circle class="st1" cx="103.7" cy="24.4" r="1.6"/>
	<circle class="st1" cx="73" cy="24.4" r="1.6"/>
	<circle class="st1" cx="83.6" cy="24.4" r="1.6"/>
	<circle class="st1" cx="33.3" cy="24.4" r="1.6"/>
	<circle class="st1" cx="94.2" cy="156.3" r="1.6"/>
	<circle class="st1" cx="104" cy="156.3" r="1.6"/>
	<circle class="st1" cx="69" cy="156.3" r="1.6"/>
	<circle class="st1" cx="23.8" cy="156.3" r="1.6"/>
	<circle class="st1" cx="155.3" cy="31.9" r="1.6"/>
	<circle class="st1" cx="155.3" cy="69.2" r="1.6"/>
	<circle class="st1" cx="155.3" cy="89.5" r="1.6"/>
	<circle class="st1" cx="155.3" cy="155.8" r="1.6"/>
	<line class="st1" x1="103.7" y1="49.6" x2="103.7" y2="26"/>
	<polyline class="st1" points="117.9,54.8 140.8,31.9 153.8,31.9 	"/>
	<polyline class="st1" points="73,116.5 73,127.5 69,131.4 69,154.8 	"/>
	<polyline class="st1" points="114.3,100.6 125.4,89.5 153.8,89.5 	"/>
	<line class="st1" x1="94.2" y1="122.9" x2="94.2" y2="154.8"/>
	<line class="st1" x1="103.7" y1="89.1" x2="103.7" y2="94.4"/>
	<line class="st1" x1="47.9" y1="91.8" x2="25.2" y2="91.8"/>
	<polyline class="st1" points="54.9,109.2 24,140.1 24,154.8 	"/>
	<polyline class="st1" points="56.6,73.4 56.6,48 34.5,25.9 	"/>
	<line class="st1" x1="73" y1="67.5" x2="73" y2="25.9"/>
	<polyline class="st1" points="83.6,26 83.6,49.3 89.4,55.1 	"/>
	<line class="st1" x1="123.7" y1="69.2" x2="153.8" y2="69.2"/>
	<polyline class="st1" points="115.7,121.4 121.5,121.4 154.6,154.4 	"/>
	<line class="st1" x1="104" y1="127.5" x2="104" y2="154.8"/>
</g>
</svg>
