<?xml version="1.0" encoding="utf-8"?>
<!-- Generator: Adobe Illustrator 18.1.1, SVG Export Plug-In . SVG Version: 6.00 Build 0)  -->
<svg version="1.1" id="Layer_1" xmlns="http://www.w3.org/2000/svg" xmlns:xlink="http://www.w3.org/1999/xlink" x="0px" y="0px"
	 viewBox="0 0 200 200" enable-background="new 0 0 200 200" xml:space="preserve">
<g>
	<polyline fill="none" stroke="#3BB0C9" stroke-width="1.4173" stroke-miterlimit="10" points="3.7,22.9 3.7,176.1 197.1,176.1 	"/>
	<rect x="13.5" y="37.1" fill="#3BB0C9" width="37.1" height="129.9"/>
	<rect x="59.2" y="68.4" fill="#3BB0C9" width="37.1" height="98.6"/>
	<rect x="103.9" y="84.5" fill="#3BB0C9" width="37.1" height="82.5"/>
	<rect x="149.1" y="137.7" fill="#3BB0C9" width="37.1" height="29.4"/>
</g>
</svg>
