<?xml version="1.0" encoding="utf-8"?>
<!-- Generator: Adobe Illustrator 18.1.1, SVG Export Plug-In . SVG Version: 6.00 Build 0)  -->
<svg version="1.1" id="Layer_1" xmlns="http://www.w3.org/2000/svg" xmlns:xlink="http://www.w3.org/1999/xlink" x="0px" y="0px"
	 viewBox="0 0 200 200" enable-background="new 0 0 200 200" xml:space="preserve">
<g>
	<circle fill="#3BB0C9" cx="97.5" cy="71.9" r="58.1"/>
	<rect x="81.1" y="124.6" fill="#3BB0C9" width="32.7" height="26.4"/>
	<rect x="81.1" y="156" fill="#3BB0C9" width="32.7" height="7.4"/>
	<rect x="81.1" y="168.4" fill="#3BB0C9" width="32.7" height="7.4"/>
	<path fill="#3BB0C9" d="M105.6,180.6c0,4.5-3.7,8.2-8.2,8.2s-8.2-3.7-8.2-8.2H105.6z"/>
	<path fill="#3BB0C9" d="M81.1,139.7c0,0,0.9-9.9-11-16.5c-7.1-3.9,4.4-13.4,4.4-13.4l18.5,3l0.5,19.4L81.1,139.7z"/>
	<path fill="#3BB0C9" d="M113.9,139.7c0,0-0.9-9.9,11-16.5c7.1-3.9-4.4-13.4-4.4-13.4l-18.5,3l-0.5,19.4L113.9,139.7z"/>
</g>
</svg>
